TT_book - 2 Exploration and vizualization of Starbuck coffee use
…
The data are loaded directly from the TidyTuesday github page.

star_df <- read_csv('https://raw.githubusercontent.com/rfordatascience/tidytuesday/master/data/2021/2021-12-21/starbucks.csv')

4 Initial explore.

Here are some explorative commands you can use:

- star-df opens the dataset and shows you the variables. - names(star_df)gives you the names of the 15 variables. - glimpse(star_df)shows you the number of rows (often particpants) and columns (often variables) and also informs you about the kind of variables. - dim(star_df) informs you about number of rows and columns.

- sum(is.na(star_df)) show you the number of missing variables.

star_df

# A tibble: 1,147 x 15
   product_n~1 size   milk  whip serv_~2 calor~3 total~4 satur~5 trans~6 chole~7
   <chr>       <chr> <dbl> <dbl>   <dbl>   <dbl>   <dbl>   <dbl> <chr>     <dbl>
 1 brewed cof~ short     0     0     236       3     0.1       0 0             0
 2 brewed cof~ tall      0     0     354       4     0.1       0 0             0
 3 brewed cof~ gran~     0     0     473       5     0.1       0 0             0
 4 brewed cof~ venti     0     0     591       5     0.1       0 0             0
 5 brewed cof~ short     0     0     236       3     0.1       0 0             0
 6 brewed cof~ tall      0     0     354       4     0.1       0 0             0
 7 brewed cof~ gran~     0     0     473       5     0.1       0 0             0
 8 brewed cof~ venti     0     0     591       5     0.1       0 0             0
 9 brewed cof~ short     0     0     236       3     0.1       0 0             0
10 brewed cof~ tall      0     0     354       4     0.1       0 0             0
# ... with 1,137 more rows, 5 more variables: sodium_mg <dbl>,
#   total_carbs_g <dbl>, fiber_g <chr>, sugar_g <dbl>, caffeine_mg <dbl>, and
#   abbreviated variable names 1: product_name, 2: serv_size_m_l, 3: calories,
#   4: total_fat_g, 5: saturated_fat_g, 6: trans_fat_g, 7: cholesterol_mg
…
