TT_book - 3 Wrangling dates-time data
…
Select variables of interest.

mydataselection <- mydata |> 
  select(uid, date_time_of_call, type_of_incident, animal_group_parent, borough_code)

Show me the frequencies of different types of animal.

myfreq <- mydataselection |> 
  group_by(animal_group_parent) |> 
  summarise(freq = n()) |> 
  arrange(-freq)
myfreq

# A tibble: 28 x 2
   animal_group_parent               freq
   <chr>                            <int>
 1 Cat                               3649
 2 Bird                              1530
 3 Dog                               1194
 4 Fox                                349
 5 Horse                              193
 6 Unknown - Domestic Animal Or Pet   191
 7 Deer                               130
 8 Unknown - Wild Animal               89
 9 Squirrel                            65
10 Unknown - Heavy Livestock Animal    49
# ... with 18 more rows
…
