TT_book - 7 Revenue and expenditure in sport
…
# A tibble: 5 x 2
  year      n
  <fct> <int>
1 2015  17345
2 2016  17414
3 2017  17628
4 2018  17772
5 2019  62168

How many cases per sport?

ttdt_selection %>% 
  count(sports)

# A tibble: 38 x 2
   sports                 n
   <fct>              <int>
 1 All Track Combined  4870
 2 Archery             1557
 3 Badminton           1554
 4 Baseball            8644
 5 Basketball         10000
 6 Beach Volleyball    1988
 7 Bowling             2176
 8 Diving              1530
 9 Equestrian          1799
10 Fencing             1687
# ... with 28 more rows
…
Grid plots compare

Correlation between Expenditures and Revenues

cor(myselection$exp_men, myselection$rev_men, method = "spearman")

[1] 0.9642041

Correlation between exp. and rev. per sport.

myselection %>% 
  group_by(sports) %>%
  summarise(assoc_exp_rev_men = cor(exp_men, rev_men, method = "spearman"))

# A tibble: 31 x 2
   sports             assoc_exp_rev_men
   <fct>                          <dbl>
 1 All Track Combined            0.855 
 2 Archery                       0.991 
 3 Basketball                    0.996 
 4 Beach Volleyball              0.987 
 5 Bowling                       0.996 
 6 Diving                        0.531 
 7 Equestrian                    0.5   
 8 Fencing                       0.696 
 9 Golf                          0.914 
10 Gymnastics                    0.0757
# ... with 21 more rows
…
