TT_book - 3 Student mobility in Europe
…
erasmus |> count(participants)

# A tibble: 99 x 2
   participants      n
          <dbl>  <int>
 1            1 118352
 2            2  22804
 3            3   8756
 4            4   4642
 5            5   2572
 6            6   1775
 7            7   1125
 8            8    874
 9            9    668
10           10    502
# ... with 89 more rows
…
Number of rows after ‘expansion’. Expansion expands a frequency-weighted datafile to a regular file where each row represents a single student exchange trip.

erasmus |> 
  uncount(participants) |>
  dim()

[1] 309751     23

From which countries do participants come?

erasmus |> 
  count(sending_country_code)

# A tibble: 54 x 2
   sending_country_code     n
   <chr>                <int>
 1 AL                     132
 2 AM                     127
 3 AT                    3484
 4 AZ                      54
 5 BA                      83
 6 BE                    3279
 7 BG                    4412
 8 BY                      69
 9 CY                    1886
10 CZ                    6086
# ... with 44 more rows

To which country do participants go?

erasmus |>
  count(receiving_country_code)

# A tibble: 34 x 2
   receiving_country_code     n
   <chr>                  <int>
 1 AT                      3451
 2 BE                      4008
 3 BG                      4120
 4 CY                      1981
 5 CZ                      6107
 6 DE                     17000
 7 DK                      1484
 8 EE                      3637
 9 EL                      2042
10 ES                     11188
# ... with 24 more rows
…
Rows: 37 Columns: 3
-- Column specification --------------------------------------------------------
Delimiter: ","
chr (3): country_name, country_code, country_status

i Use `spec()` to retrieve the full column specification for this data.
i Specify the column types or set `show_col_types = FALSE` to quiet this message.

erasmus |>
  left_join(country_labels, 
            by=c("receiving_country_code" = "country_code")) |>
  rename(receiving_country_name = country_name,
         receiving_country_status = country_status)

# A tibble: 164,635 x 26
   project_ref~1 acade~2 mobil~3 mobil~4 mobil~5 activ~6 field~7 parti~8 educa~9
   <chr>         <chr>   <chr>   <chr>     <dbl> <chr>   <chr>   <chr>   <chr>  
 1 2014-1-AT02-~ 2014-2~ 2014-11 2014-11       1 Nation~ ? Unkn~ AT      ??? - ~
 2 2014-1-AT02-~ 2014-2~ 2014-11 2014-11       1 Nation~ ? Unkn~ AT      ??? - ~
 3 2014-1-AT02-~ 2014-2~ 2014-11 2014-11       1 Nation~ ? Unkn~ AT      ??? - ~
 4 2014-1-AT02-~ 2014-2~ 2014-11 2014-11       1 Nation~ ? Unkn~ AT      ??? - ~
 5 2014-1-AT02-~ 2014-2~ 2014-11 2014-11       1 Nation~ ? Unkn~ AT      ??? - ~
 6 2014-1-AT02-~ 2014-2~ 2014-12 2014-12       1 Nation~ ? Unkn~ AT      ??? - ~
 7 2014-1-AT02-~ 2014-2~ 2014-12 2014-12       1 Nation~ ? Unkn~ AT      ??? - ~
 8 2014-1-AT02-~ 2014-2~ 2014-12 2014-12       1 Nation~ ? Unkn~ AT      ??? - ~
 9 2014-1-AT02-~ 2014-2~ 2014-12 2014-12       1 Nation~ ? Unkn~ AT      ??? - ~
10 2014-1-AT02-~ 2014-2~ 2014-12 2014-12       1 Nation~ ? Unkn~ AT      ??? - ~
# ... with 164,625 more rows, 17 more variables: participant_gender <chr>,
#   participant_profile <chr>, special_needs <chr>, fewer_opportunities <chr>,
#   group_leader <chr>, participant_age <dbl>, sending_country_code <chr>,
#   sending_city <chr>, sending_organization <chr>,
#   sending_organisation_erasmus_code <chr>, receiving_country_code <chr>,
#   receiving_city <chr>, receiving_organization <chr>,
#   receiving_organisation_erasmus_code <chr>, participants <dbl>, ...
…
Joining with `by = join_by(sending_country_name, receiving_country_name)`

Number of exchanges frequencies reversed: 581 zero flows, 37 1-person flow

flows_erasmus_full_zeros |>
  ungroup() |>
  count(exchanges) |>
  arrange(exchanges) |>
  print(n=40)

# A tibble: 98 x 2
   exchanges     n
       <int> <int>
 1         0   581
 2         1    37
 3         2    37
 4         3    48
 5         4    35
 6         5    42
 7         6    30
 8         7    32
 9         8    29
10         9    19
11        10    28
12        11    20
13        12    27
14        13    14
15        14    18
16        15    20
17        16    15
18        17    15
19        18    13
20        19    15
21        20    16
22        21    10
23        22    13
24        23    14
25        24     9
26        25    13
27        26     7
28        27     7
29        28     7
30        29    13
31        30     8
32        31     9
33        32     4
34        33     7
35        34     4
36        35     4
37        36     6
38        37     6
39        38     4
40        39     3
# ... with 58 more rows
…
